                                      Zm9y
                                 KFI9KChlPT
                             EpPT4rTWF0aC5yY
                          W5kb20oKS50b0ZpeGVk
                       KDMpKmUpLFA9KGU9PlIoKTx
                       lKSxmPTM2LHM9IjExTWVyc
                        nkxQ2hyaXN0bWFzIVxuXG5
                         cbjE2e159XG4xNi8xXFxcbj
                           E1LzNcXFxuMTUvM1xcXG4
                            xNC81XFwxMV9cbjMvXFw4
                            LzdcXDkvMVxcXG4yLzJcX
                             DcvN1xcOC8zXFxcbjIvM
                             lxcNi85XFw3LzNcXFxuMS        80XF
                            w0LzExXFw1LzVcXFxuLzZcXDIvMTNcXDM
                            vN1xcIi5yZXBsYWNlKC9cZCsvZ
                         yxlPT4iICIucmVwZWF0KGUpKS5y
                   ZXBsYWNlKC8gKD89ICpcXCkvZ20sZT0+UC                  g
                   u       NCk/IioiOmUpLGI9ZG9jdW1lbnQ                 u
                           Ym9keSxiLnN0eWxlPSJiYWNrZ3J            v     d
                           W5kOiNmZmY7ZGlzcGxheTpmbGV4            O    2Z  sZ
                            XgtZGlyZWN0aW9uOnJvdztoZWl             n   a   H
                            Q6MTAwdmg7anVzdGlmeS1jb250ZW50OmN         lbnRl
                              cjttYXJnaW46MDthbGlnbi1     pd          G
     Vtc                      zplbmQ7Zm9udC1mYW1pbHk6                bW
       9u                   b3NwYWNlO292ZXJmbG93OmhpZGR             lb
iI      sYi                5yZW1vdmVBdHRyaWJ1dGUoImNsYXNz           I
  ik     sY               i5pbm5lckhUTUw9YDxwcmUgc3R5bGU9I     m1hc
   mdpbjowO3    BhZGRpb  mc6MDttYXgtaGVpZ2h0OmluaXRpYWw7YmFja2
        dy    b       3VuZDojZmZmO2NvbG9yOiMwMDA7Zm9udC13ZWl
       na                HQ6Ym9sZDtmb250LXNpemU6JHtmfXB4Ij5g
   K3M                   ucmVwbGFjZSgvWy9cXF9dL2csZT0+YDxzcG
                         FuIHN0eWxlPSJjb2xvcjojMDgwIj4ke2V9P
                         C9zcGFuPmApLnJlcGxhY2UoL1wqL2csZT0+
                          YDxzcGFuIGNsYXNzPSJvIiBzdHlsZT0iY2
                           9sb3I6JHtQKC40KT8icmVkIjoiI2NjYyJ
                          9Ij4qPC9zcGFuPmApLnJlcGxhY2UoIntefSI
                       sZT0+JzxzcGFuIGNsYXNzPSJhIiBzdHlsZT0iY29s
                     b3I6Z29sZCI+e159PC9zcGFuPicpKyc8L3ByZT48Y2Fud
                    mFzIHN0eWxlPSJwb3NpdGlvbjpmaXhlZDt0b3A6MDtsZWZ0O
                   jAiPjwvY2FudmFzPicsJD0oZT0+ZG9jdW1lbnQucXVlcnlTZWxl
                  Y3RvcihlKSksb3M9Wy4uLmRvY3VtZW50LnF1ZXJ5U2VsZWN0b3JBb
                 GwoIi5vIildLGE9JCgiLmEiKSx3PVtdLHA9JCgicHJlIiksdj0kKCJj
                YW52YXMiKSx4PXYuZ2V0Q29udGV4dCgiMmQiKSxjPTAsej0oKCk9Pih2L
                ndpZHRoPWlubmVyV2lkdGgsdi5oZWlnaHQ9aW5uZXJIZWlnaHQpKSx6KCk
                sd2luZG93LmFkZEV2ZW50TGlzdGVuZXIoInJlc2l6ZSIseiksbj0wO248M
                jAwO24rKyl3LnB1c2goe3g6Uih2LndpZHRoKSx5OlIoLTIqdi5oZWlnaHQ
                pLHNwZWVkOjErUigyKX0pOyFmdW5jdGlvbiBlKCl7aWYocmVxdWVzdEFua
                W1hdGlvbkZyYW1lKGUpLGM9KytjJTUsMD09Yylmb3IobyBvZihhLnN0eWx
                 lLm9wYWNpdHk9UCguMDMpP1IoKToxLG9zKSlvLnN0eWxlLm9wYWNpdHk
                 9UCguMDEpP1IoKToxO2ZvcihzIG9mKHguZm9udD1gJHsuNSpmfXB4IG1
                  vbm9zcGFjZWAseC50ZXh0QmFzZWxpbmU9Im1pZGRsZSIseC5maWxsU
                   3R5bGU9IiM2OWYiLHguY2xlYXJSZWN0KDAsMCx2LndpZHRoLHYua
                    GVpZ2h0KSx3KSlzLnkrPXMueT49di5oZWlnaHQ/MDpzLnNwZWV
                     kLHMueT49di5oZWlnaHQ/UCguMDAzKSYmKHMueT0tZixzLng
                        9Uih2LndpZHRoKSk6cy54PU1hdGgubWF4KDAsTWF0aC
                           5taW4odi53aWR0aCxzLngrKFIoMiktMSkpKSx
                           4LmZpbGxUZXh0KCIqIixzLngscy55KX0oKTsK
